{
	"iisSettings": {
		"windowsAuthentication": false,
		"anonymousAuthentication": true,
		"iisExpress": {
			"applicationUrl": "http://localhost:59943/",
			"sslPort": 0
		}
	},
	"profiles": {
		"IIS Express": {
			"commandName": "IISExpress",
			"launchBrowser": true,
			"environmentVariables": {
				"ASPNETCORE_ENVIRONMENT": "Development"
			}
		},
		"WasabiOrders.WebService": {
			"commandName": "Project",
			"launchBrowser": true,
			"environmentVariables": {
				"ASPNETCORE_ENVIRONMENT": "Development"
			},
			"applicationUrl": "http://localhost:59944/"
		}
	}
}